/home/lbarjak/Dropbox/hangzavar/Java/hangzavar/src/main/java/eu/barjak/hangzavar/Dates.java
/home/lbarjak/Dropbox/hangzavar/Java/hangzavar/src/main/java/eu/barjak/hangzavar/HangtechnikaToElimexQuery.java
/home/lbarjak/Dropbox/hangzavar/Java/hangzavar/src/main/java/eu/barjak/hangzavar/GlobalVariables.java
/home/lbarjak/Dropbox/hangzavar/Java/hangzavar/src/main/java/eu/barjak/hangzavar/Voicekraft.java
/home/lbarjak/Dropbox/hangzavar/Java/hangzavar/src/main/java/eu/barjak/hangzavar/FromXLSX.java
/home/lbarjak/Dropbox/hangzavar/Java/hangzavar/src/main/java/eu/barjak/hangzavar/Hangzavar.java
/home/lbarjak/Dropbox/hangzavar/Java/hangzavar/src/main/java/eu/barjak/hangzavar/ElimexHangtechComp.java
/home/lbarjak/Dropbox/hangzavar/Java/hangzavar/src/main/java/eu/barjak/hangzavar/XLSXDownload.java
/home/lbarjak/Dropbox/hangzavar/Java/hangzavar/src/main/java/eu/barjak/hangzavar/CopyToXLSX.java
/home/lbarjak/Dropbox/hangzavar/Java/hangzavar/src/main/java/eu/barjak/hangzavar/MonacorToLinkedHashMap.java
/home/lbarjak/Dropbox/hangzavar/Java/hangzavar/src/main/java/eu/barjak/hangzavar/ElimexToLinkedHashMap.java
/home/lbarjak/Dropbox/hangzavar/Java/hangzavar/src/main/java/eu/barjak/hangzavar/Mongo.java
/home/lbarjak/Dropbox/hangzavar/Java/hangzavar/src/main/java/eu/barjak/hangzavar/Eqaudio.java
